project_mamba_all1/project_mamba_all1.sim/sim_5/behav/xsim/simulate.log
Time resolution is 1 ps
Block Memory Generator module tb_reuse_mamba_block_top_inproj_to_outproj.dut.u_ssm_core.u_ew.u_s_buffer.inst.native_mem_module.blk_mem_gen_v8_4_8_inst is using a behavioral model for simulation which will not precisely model memory collision behavior.
Note: Actual FIFO Depth = 513
Time: 0 ps  Iteration: 0
Note:  DEPTH = 512 WIDTH = 72 C_RD_PRIM_WIDTH = 72 C_RD_PRIM_DEPTH = 512 DEEP = 1 WIDE = 1
Time: 0 ps  Iteration: 0
Note: Actual FIFO Depth = 513
Time: 0 ps  Iteration: 0
Note:  DEPTH = 512 WIDTH = 72 C_RD_PRIM_WIDTH = 72 C_RD_PRIM_DEPTH = 512 DEEP = 1 WIDE = 1
Time: 0 ps  Iteration: 0
Note: Actual FIFO Depth = 513
Time: 0 ps  Iteration: 0
Note:  DEPTH = 512 WIDTH = 72 C_RD_PRIM_WIDTH = 72 C_RD_PRIM_DEPTH = 512 DEEP = 1 WIDE = 1
Time: 0 ps  Iteration: 0
Note: Actual FIFO Depth = 513
Time: 0 ps  Iteration: 0
Note:  DEPTH = 512 WIDTH = 72 C_RD_PRIM_WIDTH = 72 C_RD_PRIM_DEPTH = 512 DEEP = 1 WIDE = 1
Time: 0 ps  Iteration: 0
[29000] init weight memories
[29000] write h_t SRAM
[95000] start block auto sequence
[4717000] u_z_reader tile=0 lane=0 exp=2132 act=2132
[4717000] u_z_reader tile=0 lane=1 exp=4265 act=4265
[4717000] u_z_reader tile=0 lane=2 exp=6397 act=6397
[4717000] u_z_reader tile=0 lane=3 exp=8530 act=8530
[4723000] u_z_reader tile=1 lane=0 exp=10828 act=10828
[4723000] u_z_reader tile=1 lane=1 exp=12993 act=12993
[4723000] u_z_reader tile=1 lane=2 exp=15159 act=15159
[4723000] u_z_reader tile=1 lane=3 exp=17325 act=17325
[4727000] u_silu tile=0 lane=0 in=2132 exp=2093 act=2093
[4727000] u_silu tile=0 lane=1 in=4265 exp=4188 act=4188
[4727000] u_silu tile=0 lane=2 in=6397 exp=6281 act=6281
[4727000] u_silu tile=0 lane=3 in=8530 exp=8376 act=8376
[4729000] u_z_reader tile=2 lane=0 exp=19787 act=19787
[4729000] u_z_reader tile=2 lane=1 exp=21986 act=21986
[4729000] u_z_reader tile=2 lane=2 exp=24184 act=24184
[4729000] u_z_reader tile=2 lane=3 exp=26383 act=26383
[4733000] u_silu tile=1 lane=0 in=10828 exp=10632 act=10632
[4733000] u_silu tile=1 lane=1 in=12993 exp=12758 act=12758
[4733000] u_silu tile=1 lane=2 in=15159 exp=14885 act=14885
[4733000] u_silu tile=1 lane=3 in=17325 exp=17012 act=17012
[4735000] u_z_reader tile=3 lane=0 exp=29011 act=29011
[4735000] u_z_reader tile=3 lane=1 exp=31242 act=31242
[4735000] u_z_reader tile=3 lane=2 exp=-32062 act=-32062
[4735000] u_z_reader tile=3 lane=3 exp=-29830 act=-29830
[4739000] u_silu tile=2 lane=0 in=19787 exp=19429 act=19429
[4739000] u_silu tile=2 lane=1 in=21986 exp=21589 act=21589
[4739000] u_silu tile=2 lane=2 in=24184 exp=23747 act=23747
[4739000] u_silu tile=2 lane=3 in=26383 exp=25906 act=25906
[4741000] u_z_reader tile=4 lane=0 exp=-27038 act=-27038
[4741000] u_z_reader tile=4 lane=1 exp=-24773 act=-24773
[4741000] u_z_reader tile=4 lane=2 exp=-22509 act=-22509
[4741000] u_z_reader tile=4 lane=3 exp=-20244 act=-20244
[4745000] u_silu tile=3 lane=0 in=29011 exp=28487 act=28487
[4745000] u_silu tile=3 lane=1 in=31242 exp=30678 act=30678
[4745000] u_silu tile=3 lane=2 in=-32062 exp=-577 act=-577
[4745000] u_silu tile=3 lane=3 in=-29830 exp=-537 act=-537
[4747000] u_z_reader tile=5 lane=0 exp=-17286 act=-17286
[4747000] u_z_reader tile=5 lane=1 exp=-14989 act=-14989
[4747000] u_z_reader tile=5 lane=2 exp=-12691 act=-12691
[4747000] u_z_reader tile=5 lane=3 exp=-10393 act=-10393
[4753000] u_z_reader tile=6 lane=0 exp=-7271 act=-7271
[4753000] u_z_reader tile=6 lane=1 exp=-4940 act=-4940
[4753000] u_z_reader tile=6 lane=2 exp=-2610 act=-2610
[4753000] u_z_reader tile=6 lane=3 exp=-279 act=-279
[4759000] u_z_reader tile=7 lane=0 exp=3009 act=3009
[4759000] u_z_reader tile=7 lane=1 exp=5372 act=5372
[4759000] u_z_reader tile=7 lane=2 exp=7736 act=7736
[4759000] u_z_reader tile=7 lane=3 exp=10100 act=10100
[4765000] u_z_reader tile=8 lane=0 exp=13552 act=13552
[4765000] u_z_reader tile=8 lane=1 exp=15949 act=15949
[4765000] u_z_reader tile=8 lane=2 exp=18345 act=18345
[4765000] u_z_reader tile=8 lane=3 exp=20742 act=20742
[4771000] u_z_reader tile=9 lane=0 exp=24360 act=24360
[4771000] u_z_reader tile=9 lane=1 exp=26789 act=26789
[4771000] u_z_reader tile=9 lane=2 exp=29219 act=29219
[4771000] u_z_reader tile=9 lane=3 exp=31649 act=31649
[4815000] u_silu tile=4 lane=0 in=-27038 exp=-487 act=-487
[4815000] u_silu tile=4 lane=1 in=-24773 exp=-446 act=-446
[4815000] u_silu tile=4 lane=2 in=-22509 exp=-405 act=-405
[4815000] u_silu tile=4 lane=3 in=-20244 exp=-365 act=-365
[4817000] u_z_reader tile=10 lane=0 exp=-30105 act=-30105
[4817000] u_z_reader tile=10 lane=1 exp=-27642 act=-27642
[4817000] u_z_reader tile=10 lane=2 exp=-25180 act=-25180
[4817000] u_z_reader tile=10 lane=3 exp=-22717 act=-22717
[4873000] u_silu tile=5 lane=0 in=-17286 exp=-311 act=-311
[4873000] u_silu tile=5 lane=1 in=-14989 exp=-270 act=-270
[4873000] u_silu tile=5 lane=2 in=-12691 exp=-229 act=-229
[4873000] u_silu tile=5 lane=3 in=-10393 exp=-187 act=-187
[4875000] u_z_reader tile=11 lane=0 exp=-18769 act=-18769
[4875000] u_z_reader tile=11 lane=1 exp=-16274 act=-16274
[4875000] u_z_reader tile=11 lane=2 exp=-13778 act=-13778
[4875000] u_z_reader tile=11 lane=3 exp=-11282 act=-11282
[4931000] u_silu tile=6 lane=0 in=-7271 exp=-131 act=-131
[4931000] u_silu tile=6 lane=1 in=-4940 exp=-89 act=-89
[4931000] u_silu tile=6 lane=2 in=-2610 exp=-47 act=-47
[4931000] u_silu tile=6 lane=3 in=-279 exp=-71 act=-71
[4933000] u_z_reader tile=12 lane=0 exp=-7170 act=-7170
[4933000] u_z_reader tile=12 lane=1 exp=-4641 act=-4641
[4933000] u_z_reader tile=12 lane=2 exp=-2113 act=-2113
[4933000] u_z_reader tile=12 lane=3 exp=416 act=416
[4989000] u_silu tile=7 lane=0 in=3009 exp=2954 act=2954
[4989000] u_silu tile=7 lane=1 in=5372 exp=5275 act=5275
[4989000] u_silu tile=7 lane=2 in=7736 exp=7596 act=7596
[4989000] u_silu tile=7 lane=3 in=10100 exp=9917 act=9917
[4991000] u_z_reader tile=13 lane=0 exp=4694 act=4694
[4991000] u_z_reader tile=13 lane=1 exp=7255 act=7255
[4991000] u_z_reader tile=13 lane=2 exp=9817 act=9817
[4991000] u_z_reader tile=13 lane=3 exp=12379 act=12379
[5047000] u_silu tile=8 lane=0 in=13552 exp=13307 act=13307
[5047000] u_silu tile=8 lane=1 in=15949 exp=15661 act=15661
[5047000] u_silu tile=8 lane=2 in=18345 exp=18013 act=18013
[5047000] u_silu tile=8 lane=3 in=20742 exp=20367 act=20367
[5049000] u_z_reader tile=14 lane=0 exp=16821 act=16821
[5049000] u_z_reader tile=14 lane=1 exp=19416 act=19416
[5049000] u_z_reader tile=14 lane=2 exp=22010 act=22010
[5049000] u_z_reader tile=14 lane=3 exp=24605 act=24605
[5105000] u_silu tile=9 lane=0 in=24360 exp=23920 act=23920
[5105000] u_silu tile=9 lane=1 in=26789 exp=26305 act=26305
[5105000] u_silu tile=9 lane=2 in=29219 exp=28691 act=28691
[5105000] u_silu tile=9 lane=3 in=31649 exp=31077 act=31077
[5107000] u_z_reader tile=15 lane=0 exp=29213 act=29213
[5107000] u_z_reader tile=15 lane=1 exp=31840 act=31840
[5107000] u_z_reader tile=15 lane=2 exp=-31068 act=-31068
[5107000] u_z_reader tile=15 lane=3 exp=-28440 act=-28440
[5163000] u_silu tile=10 lane=0 in=-30105 exp=-542 act=-542
[5163000] u_silu tile=10 lane=1 in=-27642 exp=-498 act=-498
[5163000] u_silu tile=10 lane=2 in=-25180 exp=-453 act=-453
[5163000] u_silu tile=10 lane=3 in=-22717 exp=-409 act=-409
[5165000] u_z_reader tile=16 lane=0 exp=-23668 act=-23668
[5165000] u_z_reader tile=16 lane=1 exp=-21007 act=-21007
[5165000] u_z_reader tile=16 lane=2 exp=-18347 act=-18347
[5165000] u_z_reader tile=16 lane=3 exp=-15686 act=-15686
[5221000] u_silu tile=11 lane=0 in=-18769 exp=-338 act=-338
[5221000] u_silu tile=11 lane=1 in=-16274 exp=-293 act=-293
[5221000] u_silu tile=11 lane=2 in=-13778 exp=-248 act=-248
[5221000] u_silu tile=11 lane=3 in=-11282 exp=-203 act=-203
[5223000] u_z_reader tile=17 lane=0 exp=-10748 act=-10748
[5223000] u_z_reader tile=17 lane=1 exp=-8055 act=-8055
[5223000] u_z_reader tile=17 lane=2 exp=-5361 act=-5361
[5223000] u_z_reader tile=17 lane=3 exp=-2667 act=-2667
[5279000] u_silu tile=12 lane=0 in=-7170 exp=-129 act=-129
[5279000] u_silu tile=12 lane=1 in=-4641 exp=-84 act=-84
[5279000] u_silu tile=12 lane=2 in=-2113 exp=-39 act=-39
[5279000] u_silu tile=12 lane=3 in=416 exp=347 act=347
[5281000] u_z_reader tile=18 lane=0 exp=2435 act=2435
[5281000] u_z_reader tile=18 lane=1 exp=5162 act=5162
[5281000] u_z_reader tile=18 lane=2 exp=7888 act=7888
[5281000] u_z_reader tile=18 lane=3 exp=10615 act=10615
[5337000] u_silu tile=13 lane=0 in=4694 exp=4609 act=4609
[5337000] u_silu tile=13 lane=1 in=7255 exp=7124 act=7124
[5337000] u_silu tile=13 lane=2 in=9817 exp=9639 act=9639
[5337000] u_silu tile=13 lane=3 in=12379 exp=12155 act=12155
[5339000] u_z_reader tile=19 lane=0 exp=15883 act=15883
[5339000] u_z_reader tile=19 lane=1 exp=18642 act=18642
[5339000] u_z_reader tile=19 lane=2 exp=21402 act=21402
[5339000] u_z_reader tile=19 lane=3 exp=24162 act=24162
[5395000] u_silu tile=14 lane=0 in=16821 exp=16517 act=16517
[5395000] u_silu tile=14 lane=1 in=19416 exp=19065 act=19065
[5395000] u_silu tile=14 lane=2 in=22010 exp=21612 act=21612
[5395000] u_silu tile=14 lane=3 in=24605 exp=24160 act=24160
[5397000] u_z_reader tile=20 lane=0 exp=29594 act=29594
[5397000] u_z_reader tile=20 lane=1 exp=32387 act=32387
[5397000] u_z_reader tile=20 lane=2 exp=-30357 act=-30357
[5397000] u_z_reader tile=20 lane=3 exp=-27564 act=-27564
[5453000] u_silu tile=15 lane=0 in=29213 exp=28685 act=28685
[5453000] u_silu tile=15 lane=1 in=31840 exp=31265 act=31265
[5453000] u_silu tile=15 lane=2 in=-31068 exp=-559 act=-559
[5453000] u_silu tile=15 lane=3 in=-28440 exp=-512 act=-512
[5455000] u_z_reader tile=21 lane=0 exp=-21966 act=-21966
[5455000] u_z_reader tile=21 lane=1 exp=-19141 act=-19141
[5455000] u_z_reader tile=21 lane=2 exp=-16315 act=-16315
[5455000] u_z_reader tile=21 lane=3 exp=-13489 act=-13489
[5511000] u_silu tile=16 lane=0 in=-23668 exp=-426 act=-426
[5511000] u_silu tile=16 lane=1 in=-21007 exp=-378 act=-378
[5511000] u_silu tile=16 lane=2 in=-18347 exp=-331 act=-331
[5511000] u_silu tile=16 lane=3 in=-15686 exp=-283 act=-283
[5513000] u_z_reader tile=22 lane=0 exp=-7727 act=-7727
[5513000] u_z_reader tile=22 lane=1 exp=-4868 act=-4868
[5513000] u_z_reader tile=22 lane=2 exp=-2010 act=-2010
[5513000] u_z_reader tile=22 lane=3 exp=849 act=849
[5569000] u_silu tile=17 lane=0 in=-10748 exp=-194 act=-194
[5569000] u_silu tile=17 lane=1 in=-8055 exp=-145 act=-145
[5569000] u_silu tile=17 lane=2 in=-5361 exp=-97 act=-97
[5569000] u_silu tile=17 lane=3 in=-2667 exp=-48 act=-48
[5571000] u_z_reader tile=23 lane=0 exp=6777 act=6777
[5571000] u_z_reader tile=23 lane=1 exp=9668 act=9668
[5571000] u_z_reader tile=23 lane=2 exp=12560 act=12560
[5571000] u_z_reader tile=23 lane=3 exp=15452 act=15452
[5627000] u_silu tile=18 lane=0 in=2435 exp=2391 act=2391
[5627000] u_silu tile=18 lane=1 in=5162 exp=5068 act=5068
[5627000] u_silu tile=18 lane=2 in=7888 exp=7745 act=7745
[5627000] u_silu tile=18 lane=3 in=10615 exp=10423 act=10423
[5629000] u_z_reader tile=24 lane=0 exp=21544 act=21544
[5629000] u_z_reader tile=24 lane=1 exp=24469 act=24469
[5629000] u_z_reader tile=24 lane=2 exp=27393 act=27393
[5629000] u_z_reader tile=24 lane=3 exp=30318 act=30318
[5685000] u_silu tile=19 lane=0 in=15883 exp=15596 act=15596
[5685000] u_silu tile=19 lane=1 in=18642 exp=18305 act=18305
[5685000] u_silu tile=19 lane=2 in=21402 exp=21015 act=21015
[5685000] u_silu tile=19 lane=3 in=24162 exp=23725 act=23725
[5687000] u_z_reader tile=25 lane=0 exp=-28960 act=-28960
[5687000] u_z_reader tile=25 lane=1 exp=-26003 act=-26003
[5687000] u_z_reader tile=25 lane=2 exp=-23045 act=-23045
[5687000] u_z_reader tile=25 lane=3 exp=-20087 act=-20087
[5743000] u_silu tile=20 lane=0 in=29594 exp=29059 act=29059
[5743000] u_silu tile=20 lane=1 in=32387 exp=31802 act=31802
[5743000] u_silu tile=20 lane=2 in=-30357 exp=-547 act=-547
[5743000] u_silu tile=20 lane=3 in=-27564 exp=-496 act=-496
[5745000] u_z_reader tile=26 lane=0 exp=-13665 act=-13665
[5745000] u_z_reader tile=26 lane=1 exp=-10674 act=-10674
[5745000] u_z_reader tile=26 lane=2 exp=-7684 act=-7684
[5745000] u_z_reader tile=26 lane=3 exp=-4693 act=-4693
[5801000] u_silu tile=21 lane=0 in=-21966 exp=-396 act=-396
[5801000] u_silu tile=21 lane=1 in=-19141 exp=-345 act=-345
[5801000] u_silu tile=21 lane=2 in=-16315 exp=-294 act=-294
[5801000] u_silu tile=21 lane=3 in=-13489 exp=-243 act=-243
[5803000] u_z_reader tile=27 lane=0 exp=1895 act=1895
[5803000] u_z_reader tile=27 lane=1 exp=4918 act=4918
[5803000] u_z_reader tile=27 lane=2 exp=7942 act=7942
[5803000] u_z_reader tile=27 lane=3 exp=10966 act=10966
[5859000] u_silu tile=22 lane=0 in=-7727 exp=-140 act=-140
[5859000] u_silu tile=22 lane=1 in=-4868 exp=-88 act=-88
[5859000] u_silu tile=22 lane=2 in=-2010 exp=-37 act=-37
[5859000] u_silu tile=22 lane=3 in=849 exp=819 act=819
[5861000] u_z_reader tile=28 lane=0 exp=17718 act=17718
[5861000] u_z_reader tile=28 lane=1 exp=20775 act=20775
[5861000] u_z_reader tile=28 lane=2 exp=23831 act=23831
[5861000] u_z_reader tile=28 lane=3 exp=26888 act=26888
[5917000] u_silu tile=23 lane=0 in=6777 exp=6654 act=6654
[5917000] u_silu tile=23 lane=1 in=9668 exp=9493 act=9493
[5917000] u_silu tile=23 lane=2 in=12560 exp=12333 act=12333
[5917000] u_silu tile=23 lane=3 in=15452 exp=15173 act=15173
[5919000] u_z_reader tile=29 lane=0 exp=-31730 act=-31730
[5919000] u_z_reader tile=29 lane=1 exp=-28641 act=-28641
[5919000] u_z_reader tile=29 lane=2 exp=-25551 act=-25551
[5919000] u_z_reader tile=29 lane=3 exp=-22461 act=-22461
[5975000] u_silu tile=24 lane=0 in=21544 exp=21155 act=21155
[5975000] u_silu tile=24 lane=1 in=24469 exp=24027 act=24027
[5975000] u_silu tile=24 lane=2 in=27393 exp=26898 act=26898
[5975000] u_silu tile=24 lane=3 in=30318 exp=29770 act=29770
[5977000] u_z_reader tile=30 lane=0 exp=-15379 act=-15379
[5977000] u_z_reader tile=30 lane=1 exp=-12256 act=-12256
[5977000] u_z_reader tile=30 lane=2 exp=-9134 act=-9134
[5977000] u_z_reader tile=30 lane=3 exp=-6011 act=-6011
[6033000] u_silu tile=25 lane=0 in=-28960 exp=-521 act=-521
[6033000] u_silu tile=25 lane=1 in=-26003 exp=-468 act=-468
[6033000] u_silu tile=25 lane=2 in=-23045 exp=-415 act=-415
[6033000] u_silu tile=25 lane=3 in=-20087 exp=-362 act=-362
[6035000] u_z_reader tile=31 lane=0 exp=1237 act=1237
[6035000] u_z_reader tile=31 lane=1 exp=4392 act=4392
[6035000] u_z_reader tile=31 lane=2 exp=7548 act=7548
[6035000] u_z_reader tile=31 lane=3 exp=10704 act=10704
[6091000] u_silu tile=26 lane=0 in=-13665 exp=-246 act=-246
[6091000] u_silu tile=26 lane=1 in=-10674 exp=-193 act=-193
[6091000] u_silu tile=26 lane=2 in=-7684 exp=-139 act=-139
[6091000] u_silu tile=26 lane=3 in=-4693 exp=-85 act=-85
[6093000] u_z_reader tile=32 lane=0 exp=3188 act=3188
[6093000] u_z_reader tile=32 lane=1 exp=6377 act=6377
[6093000] u_z_reader tile=32 lane=2 exp=9565 act=9565
[6093000] u_z_reader tile=32 lane=3 exp=12754 act=12754
[6149000] u_silu tile=27 lane=0 in=1895 exp=1860 act=1860
[6149000] u_silu tile=27 lane=1 in=4918 exp=4829 act=4829
[6149000] u_silu tile=27 lane=2 in=7942 exp=7798 act=7798
[6149000] u_silu tile=27 lane=3 in=10966 exp=10768 act=10768
[6151000] u_z_reader tile=33 lane=0 exp=16108 act=16108
[6151000] u_z_reader tile=33 lane=1 exp=19329 act=19329
[6151000] u_z_reader tile=33 lane=2 exp=22551 act=22551
[6151000] u_z_reader tile=33 lane=3 exp=25773 act=25773
[6207000] u_silu tile=28 lane=0 in=17718 exp=17398 act=17398
[6207000] u_silu tile=28 lane=1 in=20775 exp=20399 act=20399
[6207000] u_silu tile=28 lane=2 in=23831 exp=23400 act=23400
[6207000] u_silu tile=28 lane=3 in=26888 exp=26402 act=26402
[6209000] u_z_reader tile=34 lane=0 exp=29291 act=29291
[6209000] u_z_reader tile=34 lane=1 exp=32546 act=32546
[6209000] u_z_reader tile=34 lane=2 exp=-29736 act=-29736
[6209000] u_z_reader tile=34 lane=3 exp=-26481 act=-26481
[6265000] u_silu tile=29 lane=0 in=-31730 exp=-571 act=-571
[6265000] u_silu tile=29 lane=1 in=-28641 exp=-516 act=-516
[6265000] u_silu tile=29 lane=2 in=-25551 exp=-460 act=-460
[6265000] u_silu tile=29 lane=3 in=-22461 exp=-405 act=-405
[6267000] u_z_reader tile=35 lane=0 exp=-22797 act=-22797
[6267000] u_z_reader tile=35 lane=1 exp=-19510 act=-19510
[6267000] u_z_reader tile=35 lane=2 exp=-16222 act=-16222
[6267000] u_z_reader tile=35 lane=3 exp=-12934 act=-12934
[6323000] u_silu tile=30 lane=0 in=-15379 exp=-277 act=-277
[6323000] u_silu tile=30 lane=1 in=-12256 exp=-221 act=-221
[6323000] u_silu tile=30 lane=2 in=-9134 exp=-165 act=-165
[6323000] u_silu tile=30 lane=3 in=-6011 exp=-109 act=-109
[6325000] u_z_reader tile=36 lane=0 exp=-9086 act=-9086
[6325000] u_z_reader tile=36 lane=1 exp=-5765 act=-5765
[6325000] u_z_reader tile=36 lane=2 exp=-2445 act=-2445
[6325000] u_z_reader tile=36 lane=3 exp=876 act=876
[6381000] u_silu tile=31 lane=0 in=1237 exp=1214 act=1214
[6381000] u_silu tile=31 lane=1 in=4392 exp=4312 act=4312
[6381000] u_silu tile=31 lane=2 in=7548 exp=7411 act=7411
[6381000] u_silu tile=31 lane=3 in=10704 exp=10510 act=10510
[6383000] u_z_reader tile=37 lane=0 exp=4890 act=4890
[6383000] u_z_reader tile=37 lane=1 exp=8243 act=8243
[6383000] u_z_reader tile=37 lane=2 exp=11597 act=11597
[6383000] u_z_reader tile=37 lane=3 exp=14951 act=14951
[6439000] u_silu tile=32 lane=0 in=3188 exp=3130 act=3130
[6439000] u_silu tile=32 lane=1 in=6377 exp=6261 act=6261
[6439000] u_silu tile=32 lane=2 in=9565 exp=9392 act=9392
[6439000] u_silu tile=32 lane=3 in=12754 exp=12523 act=12523
[6441000] u_z_reader tile=38 lane=0 exp=19129 act=19129
[6441000] u_z_reader tile=38 lane=1 exp=22516 act=22516
[6441000] u_z_reader tile=38 lane=2 exp=25902 act=25902
[6441000] u_z_reader tile=38 lane=3 exp=29289 act=29289
[6497000] u_silu tile=33 lane=0 in=16108 exp=15817 act=15817
[6497000] u_silu tile=33 lane=1 in=19329 exp=18980 act=18980
[6497000] u_silu tile=33 lane=2 in=22551 exp=22143 act=22143
[6497000] u_silu tile=33 lane=3 in=25773 exp=25307 act=25307
[6499000] u_z_reader tile=39 lane=0 exp=-31903 act=-31903
[6499000] u_z_reader tile=39 lane=1 exp=-28484 act=-28484
[6499000] u_z_reader tile=39 lane=2 exp=-25064 act=-25064
[6499000] u_z_reader tile=39 lane=3 exp=-21644 act=-21644
[6555000] u_silu tile=34 lane=0 in=29291 exp=28762 act=28762
[6555000] u_silu tile=34 lane=1 in=32546 exp=31958 act=31958
[6555000] u_silu tile=34 lane=2 in=-29736 exp=-535 act=-535
[6555000] u_silu tile=34 lane=3 in=-26481 exp=-477 act=-477
[6557000] u_z_reader tile=40 lane=0 exp=-17136 act=-17136
[6557000] u_z_reader tile=40 lane=1 exp=-13683 act=-13683
[6557000] u_z_reader tile=40 lane=2 exp=-10231 act=-10231
[6557000] u_z_reader tile=40 lane=3 exp=-6778 act=-6778
[6613000] u_silu tile=35 lane=0 in=-22797 exp=-411 act=-411
[6613000] u_silu tile=35 lane=1 in=-19510 exp=-351 act=-351
[6613000] u_silu tile=35 lane=2 in=-16222 exp=-292 act=-292
[6613000] u_silu tile=35 lane=3 in=-12934 exp=-233 act=-233
[6615000] u_z_reader tile=41 lane=0 exp=-2104 act=-2104
[6615000] u_z_reader tile=41 lane=1 exp=1381 act=1381
[6615000] u_z_reader tile=41 lane=2 exp=4867 act=4867
[6615000] u_z_reader tile=41 lane=3 exp=8353 act=8353
[6671000] u_silu tile=36 lane=0 in=-9086 exp=-164 act=-164
[6671000] u_silu tile=36 lane=1 in=-5765 exp=-104 act=-104
[6671000] u_silu tile=36 lane=2 in=-2445 exp=-44 act=-44
[6671000] u_silu tile=36 lane=3 in=876 exp=848 act=848
[6673000] u_z_reader tile=42 lane=0 exp=13191 act=13191
[6673000] u_z_reader tile=42 lane=1 exp=16710 act=16710
[6673000] u_z_reader tile=42 lane=2 exp=20228 act=20228
[6673000] u_z_reader tile=42 lane=3 exp=23747 act=23747
[6729000] u_silu tile=37 lane=0 in=4890 exp=4801 act=4801
[6729000] u_silu tile=37 lane=1 in=8243 exp=8094 act=8094
[6729000] u_silu tile=37 lane=2 in=11597 exp=11387 act=11387
[6729000] u_silu tile=37 lane=3 in=14951 exp=14681 act=14681
[6731000] u_z_reader tile=43 lane=0 exp=28751 act=28751
[6731000] u_z_reader tile=43 lane=1 exp=32302 act=32302
[6731000] u_z_reader tile=43 lane=2 exp=-29682 act=-29682
[6731000] u_z_reader tile=43 lane=3 exp=-26130 act=-26130
[6787000] u_silu tile=38 lane=0 in=19129 exp=18783 act=18783
[6787000] u_silu tile=38 lane=1 in=22516 exp=22109 act=22109
[6787000] u_silu tile=38 lane=2 in=25902 exp=25434 act=25434
[6787000] u_silu tile=38 lane=3 in=29289 exp=28760 act=28760
[6789000] u_z_reader tile=44 lane=0 exp=-20962 act=-20962
[6789000] u_z_reader tile=44 lane=1 exp=-17377 act=-17377
[6789000] u_z_reader tile=44 lane=2 exp=-13793 act=-13793
[6789000] u_z_reader tile=44 lane=3 exp=-10208 act=-10208
[6845000] u_silu tile=39 lane=0 in=-31903 exp=-574 act=-574
[6845000] u_silu tile=39 lane=1 in=-28484 exp=-513 act=-513
[6845000] u_silu tile=39 lane=2 in=-25064 exp=-451 act=-451
[6845000] u_silu tile=39 lane=3 in=-21644 exp=-390 act=-390
[6847000] u_z_reader tile=45 lane=0 exp=-4874 act=-4874
[6847000] u_z_reader tile=45 lane=1 exp=-1257 act=-1257
[6847000] u_z_reader tile=45 lane=2 exp=2361 act=2361
[6847000] u_z_reader tile=45 lane=3 exp=5979 act=5979
[6903000] u_silu tile=40 lane=0 in=-17136 exp=-309 act=-309
[6903000] u_silu tile=40 lane=1 in=-13683 exp=-247 act=-247
[6903000] u_silu tile=40 lane=2 in=-10231 exp=-185 act=-185
[6903000] u_silu tile=40 lane=3 in=-6778 exp=-122 act=-122
[6905000] u_z_reader tile=46 lane=0 exp=11477 act=11477
[6905000] u_z_reader tile=46 lane=1 exp=15128 act=15128
[6905000] u_z_reader tile=46 lane=2 exp=18778 act=18778
[6905000] u_z_reader tile=46 lane=3 exp=22429 act=22429
[6961000] u_silu tile=41 lane=0 in=-2104 exp=-38 act=-38
[6961000] u_silu tile=41 lane=1 in=1381 exp=1356 act=1356
[6961000] u_silu tile=41 lane=2 in=4867 exp=4779 act=4779
[6961000] u_silu tile=41 lane=3 in=8353 exp=8202 act=8202
[6963000] u_z_reader tile=47 lane=0 exp=28093 act=28093
[6963000] u_z_reader tile=47 lane=1 exp=31776 act=31776
[6963000] u_z_reader tile=47 lane=2 exp=-30076 act=-30076
[6963000] u_z_reader tile=47 lane=3 exp=-26392 act=-26392
[7019000] u_silu tile=42 lane=0 in=13191 exp=12952 act=12952
[7019000] u_silu tile=42 lane=1 in=16710 exp=16408 act=16408
[7019000] u_silu tile=42 lane=2 in=20228 exp=19862 act=19862
[7019000] u_silu tile=42 lane=3 in=23747 exp=23318 act=23318
[7021000] u_z_reader tile=48 lane=0 exp=-20564 act=-20564
[7021000] u_z_reader tile=48 lane=1 exp=-16847 act=-16847
[7021000] u_z_reader tile=48 lane=2 exp=-13131 act=-13131
[7021000] u_z_reader tile=48 lane=3 exp=-9414 act=-9414
[7077000] u_silu tile=43 lane=0 in=28751 exp=28232 act=28232
[7077000] u_silu tile=43 lane=1 in=32302 exp=31718 act=31718
[7077000] u_silu tile=43 lane=2 in=-29682 exp=-534 act=-534
[7077000] u_silu tile=43 lane=3 in=-26130 exp=-471 act=-471
[7079000] u_z_reader tile=49 lane=0 exp=-3420 act=-3420
[7079000] u_z_reader tile=49 lane=1 exp=329 act=329
[7079000] u_z_reader tile=49 lane=2 exp=4079 act=4079
[7079000] u_z_reader tile=49 lane=3 exp=7829 act=7829
[7135000] u_silu tile=44 lane=0 in=-20962 exp=-378 act=-378
[7135000] u_silu tile=44 lane=1 in=-17377 exp=-313 act=-313
[7135000] u_silu tile=44 lane=2 in=-13793 exp=-249 act=-249
[7135000] u_silu tile=44 lane=3 in=-10208 exp=-184 act=-184
[7137000] u_z_reader tile=50 lane=0 exp=13987 act=13987
[7137000] u_z_reader tile=50 lane=1 exp=17770 act=17770
[7137000] u_z_reader tile=50 lane=2 exp=21552 act=21552
[7137000] u_z_reader tile=50 lane=3 exp=25335 act=25335
[7193000] u_silu tile=45 lane=0 in=-4874 exp=-88 act=-88
[7193000] u_silu tile=45 lane=1 in=-1257 exp=-23 act=-23
[7193000] u_silu tile=45 lane=2 in=2361 exp=2318 act=2318
[7193000] u_silu tile=45 lane=3 in=5979 exp=5871 act=5871
[7195000] u_z_reader tile=51 lane=0 exp=31659 act=31659
[7195000] u_z_reader tile=51 lane=1 exp=-30062 act=-30062
[7195000] u_z_reader tile=51 lane=2 exp=-26246 act=-26246
[7195000] u_z_reader tile=51 lane=3 exp=-22430 act=-22430
[7251000] u_silu tile=46 lane=0 in=11477 exp=11269 act=11269
[7251000] u_silu tile=46 lane=1 in=15128 exp=14854 act=14854
[7251000] u_silu tile=46 lane=2 in=18778 exp=18439 act=18439
[7251000] u_silu tile=46 lane=3 in=22429 exp=22024 act=22024
[7253000] u_z_reader tile=52 lane=0 exp=-15942 act=-15942
[7253000] u_z_reader tile=52 lane=1 exp=-12093 act=-12093
[7253000] u_z_reader tile=52 lane=2 exp=-8245 act=-8245
[7253000] u_z_reader tile=52 lane=3 exp=-4396 act=-4396
[7309000] u_silu tile=47 lane=0 in=28093 exp=27585 act=27585
[7309000] u_silu tile=47 lane=1 in=31776 exp=31202 act=31202
[7309000] u_silu tile=47 lane=2 in=-30076 exp=-542 act=-542
[7309000] u_silu tile=47 lane=3 in=-26392 exp=-475 act=-475
[7311000] u_z_reader tile=53 lane=0 exp=2258 act=2258
[7311000] u_z_reader tile=53 lane=1 exp=6139 act=6139
[7311000] u_z_reader tile=53 lane=2 exp=10021 act=10021
[7311000] u_z_reader tile=53 lane=3 exp=13903 act=13903
[7367000] u_silu tile=48 lane=0 in=-20564 exp=-370 act=-370
[7367000] u_silu tile=48 lane=1 in=-16847 exp=-304 act=-304
[7367000] u_silu tile=48 lane=2 in=-13131 exp=-237 act=-237
[7367000] u_silu tile=48 lane=3 in=-9414 exp=-170 act=-170
[7369000] u_z_reader tile=54 lane=0 exp=20721 act=20721
[7369000] u_z_reader tile=54 lane=1 exp=24636 act=24636
[7369000] u_z_reader tile=54 lane=2 exp=28550 act=28550
[7369000] u_z_reader tile=54 lane=3 exp=32465 act=32465
[7425000] u_silu tile=49 lane=0 in=-3420 exp=-62 act=-62
[7425000] u_silu tile=49 lane=1 in=329 exp=257 act=257
[7425000] u_silu tile=49 lane=2 in=4079 exp=4005 act=4005
